{ "magnets":
        [ 
                {
                        "name":"AHSW41",
                        "sol":"",
                        "ist":":IST:2",
                        "writable":false
                },
                {
                        "name":"QSF41",
                        "sol":":SOL:2",
                        "ist":":IST:2",
                        "writable":true
                },
                {
                        "name":"HSC41",
                        "sol":":SOL:2",
                        "ist":":IST:2",
                        "writable":true
                },
                {
                        "name":"QSF42",
                        "sol":":SOL:2",
                        "ist":":IST:2",
                        "writable":true
                },
                {
                        "name":"QSF43",
                        "sol":":SOL:2",
                        "ist":":IST:2",
                        "writable":true
                },
                {
                        "name":"HSC42",
                        "sol":":SOL:2",
                        "ist":":IST:2",
                        "writable":true
                },
                {
                        "name":"QSF44",
                        "sol":":SOL:2",
                        "ist":":IST:2",
                        "writable":true
                },
                {
                        "name":"QSF45",
                        "sol":":SOL:2",
                        "ist":":IST:2",
                        "writable":true
                },
                {
                        "name":"HSC43",
                        "sol":":SOL:2",
                        "ist":":IST:2",
                        "writable":true
                },
                {
                        "name":"QSF46",
                        "sol":":SOL:2",
                        "ist":":IST:2",
                        "writable":true
                },
                {
                        "name":"QSF47",
                        "sol":":SOL:2",
                        "ist":":IST:2",
                        "writable":true
                },
                {
                        "name":"HSC44",
                        "sol":":SOL:2",
                        "ist":":IST:2",
                        "writable":true
                },
                {
                        "name":"QSF48",
                        "sol":":SOL:2",
                        "ist":":IST:2",
                        "writable":true
                },
                {
                        "name":"AST41",
                        "sol":":SOL:2",
                        "ist":":IST:2",
                        "writable":true
                },
                {
                        "name":"ASC41",
                        "sol":":SOL:2",
                        "ist":":IST:2",
                        "writable":true
                },
                {
                        "name":"SSL41",
                        "sol":":SOL:2",
                        "ist":":IST:2",
                        "writable":true
                },
                {
                        "name":"QSB41",
                        "sol":":SOL:2",
                        "ist":":IST:2",
                        "writable":true
                },
                {
                        "name":"QSB42",
                        "sol":":SOL:2",
                        "ist":":IST:2",
                        "writable":true
                },
                {
                        "name":"QSB43",
                        "sol":":SOL:2",
                        "ist":":IST:2",
                        "writable":true
                },
                {
                        "name":"SEP41",
                        "sol":":SOL:2",
                        "ist":":IST:2",
                        "writable":true
                },
                {
                        "name":"QSK41",
                        "sol":":SOL:2",
                        "ist":":IST:2",
                        "writable":true
                },
                {
                        "name":"QSK42",
                        "sol":":SOL:2",
                        "ist":":IST:2",
                        "writable":true
                },
                {
                        "name":"QSK43",
                        "sol":":SOL:2",
                        "ist":":IST:2",
                        "writable":true
                },
                {
                        "name":"FSH41-L",
                        "sol":":SOL",
                        "ist":":POSA",
                        "writable":true
                },
                {
                        "name":"FSH41-R",
                        "sol":":SOL",
                        "ist":":POSA",
                        "writable":true
                },
                {
                        "name":"FSH43-L",
                        "sol":":SOL",
                        "ist":":POSA",
                        "writable":true
                },
                {
                        "name":"FSH43-R",
                        "sol":":SOL",
                        "ist":":POSA",
                        "writable":true
                },
                {
                        "name":"FS42-R",
                        "sol":":SOL",
                        "ist":":POSA",
                        "writable":true
                },
                {
                        "name":"FS42-L",
                        "sol":":SOL",
                        "ist":":POSA",
                        "writable":true
                },
                {
                        "name":"FS42-V",
                        "sol":":SOL",
                        "ist":":POSA",
                        "writable":true
                }
        ]
}

